%YAML 1.1
%TAG !u! tag:unity3d.com,2011:
--- !u!1045 &1
EditorBuildSettings:
  m_ObjectHideFlags: 0
  serializedVersion: 2
  m_Scenes:
  - enabled: 1
    path: Assets/Scenes/Midterm/Scene_Midterm_Start.unity
    guid: c7f5a3d8e297c0548aa61e1ee5e22b87
  - enabled: 1
    path: Assets/Scenes/Midterm/Scene_Midterm_0.unity
    guid: 3d4b10b2e3d91b74785a7c4d4067a262
  - enabled: 1
    path: Assets/Scenes/Midterm/Scene_Midterm_1.unity
    guid: 76de35dd3ab0b3e45ac2e56cfabba40a
  - enabled: 1
    path: Assets/Scenes/Midterm/Scene_Midterm_End.unity
    guid: 21c089ea928939b4484f17953bdf303d
  m_configObjects: {}
